-0.0399999991059 ; 270.349090576
-0.0389873422682 ; 253.098403931
-0.0379746817052 ; 216.969512939
-0.0369620248675 ; 163.700042725
-0.0359493680298 ; 97.2645721436
-0.0349367074668 ; 35.6047935486
-0.0339240506291 ; 81.149848938
-0.0329113937914 ; 162.568786621
-0.0318987332284 ; 240.250427246
-0.0308860763907 ; 305.997009277
-0.0298734176904 ; 353.680541992
-0.02886075899 ; 378.323638916
-0.0278481021523 ; 376.318878174
-0.026835443452 ; 345.741271973
-0.0258227847517 ; 286.615264893
-0.0248101260513 ; 201.254714966
-0.0237974692136 ; 95.7220611572
-0.0227848105133 ; 50.0333175659
-0.0217721518129 ; 174.379837036
-0.0207594931126 ; 307.364685059
-0.0197468362749 ; 431.178070068
-0.0187341775745 ; 534.873657227
-0.0177215188742 ; 608.296813965
-0.0167088601738 ; 642.308776855
-0.0156962033361 ; 629.35357666
-0.0146835446358 ; 563.985656738
-0.0136708859354 ; 443.399719238
-0.0126582281664 ; 268.218688965
-0.0116455694661 ; 57.8908843994
-0.010632911697 ; 246.48059082
-0.00962025299668 ; 558.944519043
-0.00860759522766 ; 900.4140625
-0.00759493652731 ; 1256.49853516
-0.00658227829263 ; 1612.61645508
-0.00556962005794 ; 1953.77331543
-0.00455696182325 ; 2265.20703125
-0.0035443038214 ; 2533.16845703
-0.00253164558671 ; 2745.61987305
-0.00151898735203 ; 2892.90917969
-0.000506329117343 ; 2968.28857422
0.000506329117343 ; 2968.28881836
0.00151898735203 ; 2892.90869141
0.00253164558671 ; 2745.62011719
0.0035443038214 ; 2533.16821289
0.00455696182325 ; 2265.20727539
0.00556962005794 ; 1953.77331543
0.00658227829263 ; 1612.61633301
0.00759493652731 ; 1256.49865723
0.00860759522766 ; 900.41394043
0.00962025299668 ; 558.944519043
0.010632911697 ; 246.480606079
0.0116455694661 ; 57.8908538818
0.0126582281664 ; 268.218658447
0.0136708859354 ; 443.399749756
0.0146835446358 ; 563.985839844
0.0156962033361 ; 629.353515625
0.0167088601738 ; 642.308654785
0.0177215188742 ; 608.296936035
0.0187341775745 ; 534.873657227
0.0197468362749 ; 431.178039551
0.0207594931126 ; 307.364746094
0.0217721518129 ; 174.379821777
0.0227848105133 ; 50.0333137512
0.0237974692136 ; 95.7220993042
0.0248101260513 ; 201.254699707
0.0258227847517 ; 286.615264893
0.026835443452 ; 345.741210938
0.0278481021523 ; 376.318847656
0.02886075899 ; 378.323577881
0.0298734176904 ; 353.680603027
0.0308860763907 ; 305.99697876
0.0318987332284 ; 240.250350952
0.0329113937914 ; 162.568817139
0.0339240506291 ; 81.1498413086
0.0349367074668 ; 35.6048049927
0.0359493680298 ; 97.2645721436
0.0369620248675 ; 163.699996948
0.0379746817052 ; 216.969528198
0.0389873422682 ; 253.098419189
0.0399999991059 ; 270.349121094
-0.0399999991059 ; 270.349121094
-0.0389873422682 ; 253.098495483
-0.0379746817052 ; 216.969528198
-0.0369620248675 ; 163.699981689
-0.0359493680298 ; 97.2645721436
-0.0349367074668 ; 35.6048049927
-0.0339240506291 ; 81.1498718262
-0.0329113937914 ; 162.568817139
-0.0318987332284 ; 240.250350952
-0.0308860763907 ; 305.997070313
-0.0298734176904 ; 353.680480957
-0.02886075899 ; 378.323669434
-0.0278481021523 ; 376.318878174
-0.026835443452 ; 345.741271973
-0.0258227847517 ; 286.615264893
-0.0248101260513 ; 201.254669189
-0.0237974692136 ; 95.7220535278
-0.0227848105133 ; 50.0333175659
-0.0217721518129 ; 174.37991333
-0.0207594931126 ; 307.364562988
-0.0197468362749 ; 431.178161621
-0.0187341775745 ; 534.873413086
-0.0177215188742 ; 608.29675293
-0.0167088601738 ; 642.308898926
-0.0156962033361 ; 629.353515625
-0.0146835446358 ; 563.985900879
-0.0136708859354 ; 443.399810791
-0.0126582281664 ; 268.218688965
-0.0116455694661 ; 57.8908615112
-0.010632911697 ; 246.480682373
-0.00962025299668 ; 558.944519043
-0.00860759522766 ; 900.414306641
-0.00759493652731 ; 1256.49926758
-0.00658227829263 ; 1612.61608887
-0.00556962005794 ; 1953.77246094
-0.00455696182325 ; 2265.20703125
-0.0035443038214 ; 2533.16748047
-0.00253164558671 ; 2745.61987305
-0.00151898735203 ; 2892.90771484
-0.000506329117343 ; 2968.28930664
0.000506329117343 ; 2968.28881836
0.00151898735203 ; 2892.90771484
0.00253164558671 ; 2745.61987305
0.0035443038214 ; 2533.16699219
0.00455696182325 ; 2265.20678711
0.00556962005794 ; 1953.7722168
0.00658227829263 ; 1612.6159668
0.00759493652731 ; 1256.49926758
0.00860759522766 ; 900.4140625
0.00962025299668 ; 558.944641113
0.010632911697 ; 246.480667114
0.0116455694661 ; 57.8908653259
0.0126582281664 ; 268.218719482
0.0136708859354 ; 443.399749756
0.0146835446358 ; 563.985961914
0.0156962033361 ; 629.353515625
0.0167088601738 ; 642.308898926
0.0177215188742 ; 608.29675293
0.0187341775745 ; 534.873474121
0.0197468362749 ; 431.178039551
0.0207594931126 ; 307.364532471
0.0217721518129 ; 174.379806519
0.0227848105133 ; 50.0333099365
0.0237974692136 ; 95.7220687866
0.0248101260513 ; 201.254714966
0.0258227847517 ; 286.615264893
0.026835443452 ; 345.741210938
0.0278481021523 ; 376.318817139
0.02886075899 ; 378.323669434
0.0298734176904 ; 353.68057251
0.0308860763907 ; 305.997039795
0.0318987332284 ; 240.250335693
0.0329113937914 ; 162.56880188
0.0339240506291 ; 81.1498413086
0.0349367074668 ; 35.6048088074
0.0359493680298 ; 97.2645645142
0.0369620248675 ; 163.699996948
0.0379746817052 ; 216.969528198
0.0389873422682 ; 253.098480225
0.0399999991059 ; 270.349121094
